Exploring the BRFSS data
…
Here, we use Poor Physical Or Mental Health Days represent health status. More Poor Physical Or Mental Health Days, worse health status.

We can see that people who have better health status, have less Poor Physical Or Mental Health Days. And the mean of Poor Physical Or Mental Health Days is between Good and Fair health status.

Research quesion 2:

poorhlth_age_sex <- brfss2013 %>% filter(!is.na(X_ageg5yr), !is.na(sex)) %>% group_by(X_ageg5yr, sex) %>% summarise(mean = mean(poorhlth, na.rm = TRUE))
poorhlth_age_sex

## # A tibble: 26 x 3
## # Groups:   X_ageg5yr [?]
##       X_ageg5yr    sex     mean
##          <fctr> <fctr>    <dbl>
##  1 Age 18 to 24   Male 2.212543
##  2 Age 18 to 24 Female 2.532348
##  3 Age 25 to 29   Male 2.701998
##  4 Age 25 to 29 Female 3.079148
##  5 Age 30 to 34   Male 3.018626
##  6 Age 30 to 34 Female 3.461963
##  7 Age 35 to 39   Male 3.688283
##  8 Age 35 to 39 Female 3.813767
##  9 Age 40 to 44   Male 4.367450
## 10 Age 40 to 44 Female 4.576728
## # ... with 16 more rows
…
